Hira/Verilog/Sequential_Multiplier/sequential.vcd
$date
	Fri Aug  2 13:23:44 2024
$end
$version
	QuestaSim Version 2021.1
$end
$timescale
	1ns
$end

$scope module tb_top_multiplier $end

$scope module dut $end
$var wire 1 ! clk $end
$var wire 1 " rst $end
$var wire 1 # start $end
$var wire 1 $ A [15] $end
$var wire 1 % A [14] $end
$var wire 1 & A [13] $end
$var wire 1 ' A [12] $end
$var wire 1 ( A [11] $end
$var wire 1 ) A [10] $end
$var wire 1 * A [9] $end
$var wire 1 + A [8] $end
$var wire 1 , A [7] $end
$var wire 1 - A [6] $end
$var wire 1 . A [5] $end
$var wire 1 / A [4] $end
$var wire 1 0 A [3] $end
$var wire 1 1 A [2] $end
$var wire 1 2 A [1] $end
$var wire 1 3 A [0] $end
$var wire 1 4 B [15] $end
$var wire 1 5 B [14] $end
$var wire 1 6 B [13] $end
$var wire 1 7 B [12] $end
$var wire 1 8 B [11] $end
$var wire 1 9 B [10] $end
$var wire 1 : B [9] $end
$var wire 1 ; B [8] $end
$var wire 1 < B [7] $end
$var wire 1 = B [6] $end
$var wire 1 > B [5] $end
$var wire 1 ? B [4] $end
$var wire 1 @ B [3] $end
$var wire 1 A B [2] $end
$var wire 1 B B [1] $end
$var wire 1 C B [0] $end
$var wire 1 D product [31] $end
$var wire 1 E product [30] $end
$var wire 1 F product [29] $end
$var wire 1 G product [28] $end
$var wire 1 H product [27] $end
$var wire 1 I product [26] $end
$var wire 1 J product [25] $end
$var wire 1 K product [24] $end
$var wire 1 L product [23] $end
$var wire 1 M product [22] $end
$var wire 1 N product [21] $end
$var wire 1 O product [20] $end
$var wire 1 P product [19] $end
$var wire 1 Q product [18] $end
$var wire 1 R product [17] $end
$var wire 1 S product [16] $end
$var wire 1 T product [15] $end
$var wire 1 U product [14] $end
$var wire 1 V product [13] $end
$var wire 1 W product [12] $end
$var wire 1 X product [11] $end
$var wire 1 Y product [10] $end
$var wire 1 Z product [9] $end
$var wire 1 [ product [8] $end
$var wire 1 \ product [7] $end
$var wire 1 ] product [6] $end
$var wire 1 ^ product [5] $end
$var wire 1 _ product [4] $end
$var wire 1 ` product [3] $end
$var wire 1 a product [2] $end
$var wire 1 b product [1] $end
$var wire 1 c product [0] $end
$var wire 1 d done $end
$var wire 1 e load $end
$var wire 1 f calc $end
$var wire 1 g dp_done $end

$scope module dp $end
$var wire 1 ! clk $end
$var wire 1 " rst $end
$var wire 1 e load $end
$var wire 1 f calc $end
$var wire 1 $ A [15] $end
$var wire 1 % A [14] $end
$var wire 1 & A [13] $end
$var wire 1 ' A [12] $end
$var wire 1 ( A [11] $end
$var wire 1 ) A [10] $end
$var wire 1 * A [9] $end
$var wire 1 + A [8] $end
$var wire 1 , A [7] $end
$var wire 1 - A [6] $end
$var wire 1 . A [5] $end
$var wire 1 / A [4] $end
$var wire 1 0 A [3] $end
$var wire 1 1 A [2] $end
$var wire 1 2 A [1] $end
$var wire 1 3 A [0] $end
$var wire 1 4 B [15] $end
$var wire 1 5 B [14] $end
$var wire 1 6 B [13] $end
$var wire 1 7 B [12] $end
$var wire 1 8 B [11] $end
$var wire 1 9 B [10] $end
$var wire 1 : B [9] $end
$var wire 1 ; B [8] $end
$var wire 1 < B [7] $end
$var wire 1 = B [6] $end
$var wire 1 > B [5] $end
$var wire 1 ? B [4] $end
$var wire 1 @ B [3] $end
$var wire 1 A B [2] $end
$var wire 1 B B [1] $end
$var wire 1 C B [0] $end
$var reg 32 h product [31:0] $end
$var reg 1 i done $end
$var reg 32 j product_reg [31:0] $end
$var reg 5 k bit_index [4:0] $end
$var reg 32 l partial_product [31:0] $end
$var integer 32 m WIDTH $end
$upscope $end

$scope module cu $end
$var wire 1 ! clk $end
$var wire 1 " rst $end
$var wire 1 # start $end
$var wire 1 g done $end
$var reg 1 n load $end
$var reg 1 o calc $end
$var reg 3 p state [2:0] $end
$var reg 3 q next_state [2:0] $end
$upscope $end
$upscope $end
$upscope $end
$enddefinitions $end
#0
$dumpvars
b0 h
0i
b0 j
b0 k
b0 l
0n
0o
b0 p
b0 q
b10000 m
0e
0f
0g
xC
xB
xA
x@
x?
x>
x=
x<
x;
x:
x9
x8
x7
x6
x5
x4
x3
x2
x1
x0
x/
x.
x-
x,
x+
x*
x)
x(
x'
x&
x%
x$
x#
1"
0!
0c
0b
0a
0`
0_
0^
0]
0\
0[
0Z
0Y
0X
0W
0V
0U
0T
0S
0R
0Q
0P
0O
0N
0M
0L
0K
0J
0I
0H
0G
0F
0E
0D
0d
$end
#5
1!
#10
0"
0!
#15
1!
#20
1C
0B
0A
0@
0?
0>
0=
1<
0;
1:
19
18
17
06
15
04
03
02
11
00
0/
1.
0-
0,
1+
0*
1)
0(
1'
1&
0%
0$
1#
0!
1n
b1 q
1e
#25
1!
b1 p
0n
1o
0e
1f
b11010100100100 l
b1011010100100100 l
b1011010100100100 j
#30
0#
0!
0o
1o
#35
1!
b1 k
b0 l
b1000000000000000 l
b10000000000000000 l
b11011010100100100 j
#40
0!
#45
1!
b10 k
b0 l
b1000000000000000 l
b100000000000000000 l
b111011010100100100 j
#50
0!
#55
1!
b11 k
b0 l
b1000000000000000 l
b1000000000000000000 l
b1111011010100100100 j
#60
0!
#65
1!
b100 k
b0 l
b1000000000000000 l
b10000000000000000000 l
b11111011010100100100 j
#70
0!
#75
1!
b101 k
b0 l
b1000000000000000 l
b100000000000000000000 l
b111111011010100100100 j
#80
0!
#85
1!
b110 k
b0 l
b1000000000000000 l
b1000000000000000000000 l
b1111111011010100100100 j
#90
0!
#95
1!
b111 k
b11010100100100 l
b1011010100100100 l
b10110101001001000000000 l
b100110100100011100100100 j
#100
0!
#105
1!
b1000 k
b0 l
b1000000000000000 l
b100000000000000000000000 l
b1000110100100011100100100 j
#110
0!
#115
1!
b1001 k
b11010100100100 l
b1011010100100100 l
b1011010100100100000000000 l
b10100001001000111100100100 j
#120
0!
#125
1!
b1010 k
b11010100100100 l
b1011010100100100 l
b10110101001001000000000000 l
b101010110010001111100100100 j
#130
0!
#135
1!
b1011 k
b11010100100100 l
b1011010100100100 l
b101101010010010000000000000 l
b1011000000100011111100100100 j
#140
0!
#145
1!
b1100 k
b11010100100100 l
b1011010100100100 l
b1011010100100100000000000000 l
b10110010101000111111100100100 j
#150
0!
#155
1!
b1101 k
b0 l
b1000000000000000 l
b10000000000000000000000000000 l
b100110010101000111111100100100 j
#160
0!
#165
1!
b1110 k
b11010100100100 l
b1011010100100100 l
b101101010010010000000000000000 l
b1010011100111010111111100100100 j
#170
0!
#175
1!
b1111 k
b0 l
b1000000000000000 l
b11111111111111110111111111111111 l
b10111111111111111000000000000000 l
b10011100111001111111100100100 j
b10011100111011111111100100100 j
#180
0!
#185
1!
b10000 k
b10011100111011111111100100100 h
1i
1a
1^
1[
1Z
1Y
1X
1W
1V
1U
1T
1S
1Q
1P
1O
1L
1K
1J
1G
1g
1d
0o
1o
b0 q
b0 l
b1000000000000000 l
b10000000000000000000000000000000 l
b10010011100111011111111100100100 j
#190
0!
#195
1"
1!
b0 h
0i
b0 k
b0 p
0a
0^
0[
0Z
0Y
0X
0W
0V
0U
0T
0S
0Q
0P
0O
0L
0K
0J
0G
0g
0d
0o
b11010100100100 l
b1011010100100100 l
b10010011100111101011010001001000 j
0f
b0 l
b0 j
#200
0!
#205
0"
1!
#210
0!
#215
1B
1>
1=
0<
08
13
01
10
0.
0+
1*
0&
1%
1$
1#
1!
1n
b1 q
1e
#220
0!
#225
0#
1!
0n
b0 q
0e
b1 p
1o
b1 q
1f
b1101011000001001 l
b101011000001001 l
b101011000001001 j
#230
0!
#235
1!
b1 k
b1101011000001001 l
b101011000001001 l
b1010110000010010 l
b10000001000011011 j
#240
0!
#245
1!
b10 k
b0 l
b1000000000000000 l
b100000000000000000 l
b110000001000011011 j
#250
0!
#255
1!
b11 k
b0 l
b1000000000000000 l
b1000000000000000000 l
b1110000001000011011 j
#260
0!
#265
1!
b100 k
b0 l
b1000000000000000 l
b10000000000000000000 l
b11110000001000011011 j
#270
0!
#275
1!
b101 k
b1101011000001001 l
b101011000001001 l
b10101100000100100000 l
b110011100001100111011 j
#280
0!
#285
1!
b110 k
b1101011000001001 l
b101011000001001 l
b101011000001001000000 l
b1011110100010101111011 j
#290
0!
#295
1!
b111 k
b0 l
b1000000000000000 l
b10000000000000000000000 l
b11011110100010101111011 j
#300
0!
#305
1!
b1000 k
b0 l
b1000000000000000 l
b100000000000000000000000 l
b111011110100010101111011 j
#310
0!
#315
1!
b1001 k
b1101011000001001 l
b101011000001001 l
b101011000001001000000000 l
b1100110110101011101111011 j
#320
0!
#325
1!
b1010 k
b1101011000001001 l
b101011000001001 l
b1010110000010010000000000 l
b10111100110111101101111011 j
#330
0!
#335
1!
b1011 k
b0 l
b1000000000000000 l
b100000000000000000000000000 l
b110111100110111101101111011 j
#340
0!
#345
1!
b1100 k
b1101011000001001 l
b101011000001001 l
b101011000001001000000000000 l
b1100010101000000101101111011 j
#350
0!
#355
1!
b1101 k
b0 l
b1000000000000000 l
b10000000000000000000000000000 l
b11100010101000000101101111011 j
#360
0!
#365
1!
b1110 k
b1101011000001001 l
b101011000001001 l
b10101100000100100000000000000 l
b110001110101100100101101111011 j
#370
0!
#375
1!
b1111 k
b0 l
b1000000000000000 l
b11111111111111110111111111111111 l
b10111111111111111000000000000000 l
b11110001110101011100101101111011 j
b11110001110101101100101101111011 j
#380
0!
#385
1!
b10000 k
b11110001110101101100101101111011 h
1i
1c
1b
1`
1_
1^
1]
1[
1Z
1X
1U
1T
1R
1Q
1O
1M
1L
1K
1G
1F
1E
1D
1g
1d
0o
1o
b0 q
b0 l
b1000000000000000 l
b10000000000000000000000000000000 l
b1110001110101101100101101111011 j
#390
0!
#395
1"
1!
b0 h
0i
b0 k
b0 p
0c
0b
0`
0_
0^
0]
0[
0Z
0X
0U
0T
0R
0Q
0O
0M
0L
0K
0G
0F
0E
0D
0g
0d
0o
b1101011000001001 l
b101011000001001 l
b1110001110101110010000110000100 j
0f
b0 l
b0 j
#400
0!
#405
0"
1!
#410
0!
#415
0B
1A
1@
0>
0=
1<
1;
0:
09
18
05
14
11
1+
0)
1(
1&
0$
1#
1!
1n
b1 q
1e
#420
0!
#425
0#
1!
0n
b0 q
0e
b1 p
1o
b1 q
1f
b111101100001101 l
b1111101100001101 l
b1111101100001101 j
#430
0!
#435
1!
b1 k
b0 l
b1000000000000000 l
b10000000000000000 l
b11111101100001101 j
#440
0!
#445
1!
b10 k
b111101100001101 l
b1111101100001101 l
b111110110000110100 l
b1011110011101000001 j
#450
0!
#455
1!
b11 k
b111101100001101 l
b1111101100001101 l
b1111101100001101000 l
b11011011111110101001 j
#460
0!
#465
1!
b100 k
b0 l
b1000000000000000 l
b10000000000000000000 l
b101011011111110101001 j
#470
0!
#475
1!
b101 k
b0 l
b1000000000000000 l
b100000000000000000000 l
b1001011011111110101001 j
#480
0!
#485
1!
b110 k
b0 l
b1000000000000000 l
b1000000000000000000000 l
b10001011011111110101001 j
#490
0!
#495
1!
b111 k
b111101100001101 l
b1111101100001101 l
b11111011000011010000000 l
b110000110100011000101001 j
#500
0!
#505
1!
b1000 k
b111101100001101 l
b1111101100001101 l
b111110110000110100000000 l
b1101111100101001100101001 j
#510
0!
#515
1!
b1001 k
b0 l
b1000000000000000 l
b1000000000000000000000000 l
b10101111100101001100101001 j
#520
0!
#525
1!
b1010 k
b0 l
b1000000000000000 l
b10000000000000000000000000 l
b100101111100101001100101001 j
#530
0!
#535
1!
b1011 k
b111101100001101 l
b1111101100001101 l
b111110110000110100000000000 l
b1100100101101011101100101001 j
#540
0!
#545
1!
b1100 k
b111101100001101 l
b1111101100001101 l
b1111101100001101000000000000 l
b11100010001111000101100101001 j
#550
0!
#555
1!
b1101 k
b0 l
b1000000000000000 l
b10000000000000000000000000000 l
b101100010001111000101100101001 j
#560
0!
#565
1!
b1110 k
b0 l
b1000000000000000 l
b100000000000000000000000000000 l
b1001100010001111000101100101001 j
#570
0!
#575
1!
b1111 k
b111101100001101 l
b1111101100001101 l
b11111111111111110000010011110010 l
b10000010011110010000000000000000 l
b11001110110000001000101100101001 j
b11001110110000011000101100101001 j
#580
0!
#585
1!
b10000 k
b11001110110000011000101100101001 h
1i
1c
1`
1^
1[
1Z
1X
1T
1S
1M
1L
1J
1I
1H
1E
1D
1g
1d
0o
1o
b0 q
b0 l
b1000000000000000 l
b10000000000000000000000000000000 l
b1001110110000011000101100101001 j
#590
0!
#595
1"
1!
b0 h
0i
b0 k
b0 p
0c
0`
0^
0[
0Z
0X
0T
0S
0M
0L
0J
0I
0H
0E
0D
0g
0d
0o
b111101100001101 l
b1111101100001101 l
b1001110110000101000011000110110 j
0f
b0 l
b0 j
#600
0!
#605
0"
1!
#610
0!
#615
0C
1B
0A
0@
1?
0<
0;
1:
08
15
04
00
1.
1-
0+
0*
1)
0(
0'
0&
0%
1$
1#
1!
1n
b1 q
1e
#620
0!
#625
0#
1!
0n
b0 q
0e
b1 p
1o
b1 q
1f
b1000000000000000 l
b1000000000000000 j
#630
0!
#635
1!
b1 k
b1000010001100101 l
b10001100101 l
b100011001010 l
b1000100011001010 j
#640
0!
#645
1!
b10 k
b0 l
b1000000000000000 l
b100000000000000000 l
b101000100011001010 j
#650
0!
#655
1!
b11 k
b0 l
b1000000000000000 l
b1000000000000000000 l
b1101000100011001010 j
#660
0!
#665
1!
b100 k
b1000010001100101 l
b10001100101 l
b100011001010000 l
b1101100111100011010 j
#670
0!
#675
1!
b101 k
b0 l
b1000000000000000 l
b100000000000000000000 l
b101101100111100011010 j
#680
0!
#685
1!
b110 k
b0 l
b1000000000000000 l
b1000000000000000000000 l
b1101101100111100011010 j
#690
0!
#695
1!
b111 k
b0 l
b1000000000000000 l
b10000000000000000000000 l
b11101101100111100011010 j
#700
0!
#705
1!
b1000 k
b0 l
b1000000000000000 l
b100000000000000000000000 l
b111101101100111100011010 j
#710
0!
#715
1!
b1001 k
b1000010001100101 l
b10001100101 l
b10001100101000000000 l
b111111111001100100011010 j
#720
0!
#725
1!
b1010 k
b0 l
b1000000000000000 l
b10000000000000000000000000 l
b10111111111001100100011010 j
#730
0!
#735
1!
b1011 k
b0 l
b1000000000000000 l
b100000000000000000000000000 l
b110111111111001100100011010 j
#740
0!
#745
1!
b1100 k
b1000010001100101 l
b10001100101 l
b10001100101000000000000 l
b111010001011110100100011010 j
#750
0!
#755
1!
b1101 k
b0 l
b1000000000000000 l
b10000000000000000000000000000 l
b10111010001011110100100011010 j
#760
0!
#765
1!
b1110 k
b1000010001100101 l
b10001100101 l
b1000110010100000000000000 l
b11000010111110010100100011010 j
#770
0!
#775
1!
b1111 k
b0 l
b1000000000000000 l
b11111111111111110111111111111111 l
b10111111111111111000000000000000 l
b11011000010111101010100100011010 j
b11011000010111111010100100011010 j
#780
0!
#785
1!
b10000 k
b11011000010111111010100100011010 h
1i
1b
1`
1_
1[
1X
1V
1T
1S
1R
1Q
1P
1O
1M
1H
1G
1E
1D
1g
1d
0o
1o
b0 q
b0 l
b1000000000000000 l
b10000000000000000000000000000000 l
b1011000010111111010100100011010 j
#790
0!
#795
1"
1!
b0 h
0i
b0 k
b0 p
0b
0`
0_
0[
0X
0V
0T
0S
0R
0Q
0P
0O
0M
0H
0G
0E
0D
0g
0d
0o
b0 l
b1000000000000000 l
b1011000011000000010100100011010 j
0f
b0 l
b0 j
#800
0!
#805
0"
1!
#810
0!
#815
1C
0B
1A
1@
0?
1;
0:
19
18
07
14
01
0.
0-
1+
1*
0)
1&
1%
1#
1!
1n
b1 q
1e
#820
0!
#825
0#
1!
0n
b0 q
0e
b1 p
1o
b1 q
1f
b1110001100000001 l
b110001100000001 l
b110001100000001 j
#830
0!
#835
1!
b1 k
b0 l
b1000000000000000 l
b10000000000000000 l
b10110001100000001 j
#840
0!
#845
1!
b10 k
b1110001100000001 l
b110001100000001 l
b11000110000000100 l
b101110111100000101 j
#850
0!
#855
1!
b11 k
b1110001100000001 l
b110001100000001 l
b110001100000001000 l
b1100000011100001101 j
#860
0!
#865
1!
b100 k
b0 l
b1000000000000000 l
b10000000000000000000 l
b11100000011100001101 j
#870
0!
#875
1!
b101 k
b0 l
b1000000000000000 l
b100000000000000000000 l
b111100000011100001101 j
#880
0!
#885
1!
b110 k
b0 l
b1000000000000000 l
b1000000000000000000000 l
b1111100000011100001101 j
#890
0!
#895
1!
b111 k
b0 l
b1000000000000000 l
b10000000000000000000000 l
b11111100000011100001101 j
#900
0!
#905
1!
b1000 k
b1110001100000001 l
b110001100000001 l
b11000110000000100000000 l
b111000010000100000001101 j
#910
0!
#915
1!
b1001 k
b0 l
b1000000000000000 l
b1000000000000000000000000 l
b1111000010000100000001101 j
#920
0!
#925
1!
b1010 k
b1110001100000001 l
b110001100000001 l
b1100011000000010000000000 l
b11011011010000110000001101 j
#930
0!
#935
1!
b1011 k
b1110001100000001 l
b110001100000001 l
b11000110000000100000000000 l
b110100001010001010000001101 j
#940
0!
#945
1!
b1100 k
b0 l
b1000000000000000 l
b1000000000000000000000000000 l
b1110100001010001010000001101 j
#950
0!
#955
1!
b1101 k
b0 l
b1000000000000000 l
b10000000000000000000000000000 l
b11110100001010001010000001101 j
#960
0!
#965
1!
b1110 k
b1110001100000001 l
b110001100000001 l
b11000110000000100000000000000 l
b110111010001010101010000001101 j
#970
0!
#975
1!
b1111 k
b1110001100000001 l
b110001100000001 l
b11111111111111111001110011111110 l
b11001110011111110000000000000000 l
b101110001000101010000001101 j
b101110001010101010000001101 j
#980
0!
#985
1!
b10000 k
b101110001010101010000001101 h
1i
1c
1a
1`
1Y
1W
1U
1S
1Q
1M
1L
1K
1I
1g
1d
0o
1o
b0 q
b0 l
b1000000000000000 l
b10000000000000000000000000000000 l
b10000101110001010101010000001101 j
#990
0!
#995
1"
1!
b0 h
0i
b0 k
b0 p
0c
0a
0`
0Y
0W
0U
0S
0Q
0M
0L
0K
0I
0g
0d
0o
b1110001100000001 l
b110001100000001 l
b10000101110001011011011100001110 j
0f
b0 l
b0 j
#1000
0!
#1005
0"
1!
#1010
0!
#1015
1?
1>
03
12
11
1/
1.
1-
0*
1'
1#
1!
1n
b1 q
1e
#1020
0!
#1025
0#
1!
0n
b0 q
0e
b1 p
1o
b1 q
1f
b1111000101110110 l
b111000101110110 l
b111000101110110 j
#1030
0!
#1035
1!
b1 k
b0 l
b1000000000000000 l
b10000000000000000 l
b10111000101110110 j
#1040
0!
#1045
1!
b10 k
b1111000101110110 l
b111000101110110 l
b11100010111011000 l
b110011011101001110 j
#1050
0!
#1055
1!
b11 k
b1111000101110110 l
b111000101110110 l
b111000101110110000 l
b1101100001011111110 j
#1060
0!
#1065
1!
b100 k
b1111000101110110 l
b111000101110110 l
b1110001011101100000 l
b11011101101001011110 j
#1070
0!
#1075
1!
b101 k
b1111000101110110 l
b111000101110110 l
b11100010111011000000 l
b111000000100100011110 j
#1080
0!
#1085
1!
b110 k
b0 l
b1000000000000000 l
b1000000000000000000000 l
b1111000000100100011110 j
#1090
0!
#1095
1!
b111 k
b0 l
b1000000000000000 l
b10000000000000000000000 l
b11111000000100100011110 j
#1100
0!
#1105
1!
b1000 k
b1111000101110110 l
b111000101110110 l
b11100010111011000000000 l
b111011010111111100011110 j
#1110
0!
#1115
1!
b1001 k
b0 l
b1000000000000000 l
b1000000000000000000000000 l
b1111011010111111100011110 j
#1120
0!
#1125
1!
b1010 k
b1111000101110110 l
b111000101110110 l
b1110001011101100000000000 l
b11101100110101011100011110 j
#1130
0!
#1135
1!
b1011 k
b1111000101110110 l
b111000101110110 l
b11100010111011000000000000 l
b111001111110000011100011110 j
#1140
0!
#1145
1!
b1100 k
b0 l
b1000000000000000 l
b1000000000000000000000000000 l
b1111001111110000011100011110 j
#1150
0!
#1155
1!
b1101 k
b0 l
b1000000000000000 l
b10000000000000000000000000000 l
b11111001111110000011100011110 j
#1160
0!
#1165
1!
b1110 k
b1111000101110110 l
b111000101110110 l
b11100010111011000000000000000 l
b111011100111001000011100011110 j
#1170
0!
#1175
1!
b1111 k
b1111000101110110 l
b111000101110110 l
b11111111111111111000111010001001 l
b11000111010001001000000000000000 l
b10111000010000011100011110 j
b10111000100000011100011110 j
#1180
0!
#1185
1!
b10000 k
b10111000100000011100011110 h
1i
1b
1a
1`
1_
1[
1Z
1Y
1R
1N
1M
1L
1J
1g
1d
0o
1o
b0 q
b0 l
b1000000000000000 l
b10000000000000000000000000000000 l
b10000010111000100000011100011110 j
#1190
0!
#1195
1"
1!
b0 h
0i
b0 k
b0 p
0b
0a
0`
0_
0[
0Z
0Y
0R
0N
0M
0L
0J
0g
0d
0o
b1111000101110110 l
b111000101110110 l
b10000010111000100111100010010100 j
0f
b0 l
b0 j
#1200
0!
#1205
0"
1!
#1210
0!
#1215
0C
0?
0>
1<
1:
08
17
16
13
02
10
0/
1,
1*
1)
0&
0$
1#
1!
1n
b1 q
1e
#1220
0!
#1225
0#
1!
0n
b0 q
0e
b1 p
1o
b1 q
1f
b1000000000000000 l
b1000000000000000 j
#1230
0!
#1235
1!
b1 k
b0 l
b1000000000000000 l
b10000000000000000 l
b11000000000000000 j
#1240
0!
#1245
1!
b10 k
b101011111101101 l
b1101011111101101 l
b110101111110110100 l
b1001101111110110100 j
#1250
0!
#1255
1!
b11 k
b101011111101101 l
b1101011111101101 l
b1101011111101101000 l
b10111001111100011100 j
#1260
0!
#1265
1!
b100 k
b0 l
b1000000000000000 l
b10000000000000000000 l
b100111001111100011100 j
#1270
0!
#1275
1!
b101 k
b0 l
b1000000000000000 l
b100000000000000000000 l
b1000111001111100011100 j
#1280
0!
#1285
1!
b110 k
b0 l
b1000000000000000 l
b1000000000000000000000 l
b10000111001111100011100 j
#1290
0!
#1295
1!
b111 k
b101011111101101 l
b1101011111101101 l
b11010111111011010000000 l
b101011111001010110011100 j
#1300
0!
#1305
1!
b1000 k
b101011111101101 l
b1101011111101101 l
b110101111110110100000000 l
b1100001111000001010011100 j
#1310
0!
#1315
1!
b1001 k
b101011111101101 l
b1101011111101101 l
b1101011111101101000000000 l
b11001101110101110010011100 j
#1320
0!
#1325
1!
b1010 k
b101011111101101 l
b1101011111101101 l
b11010111111011010000000000 l
b110100101110001000010011100 j
#1330
0!
#1335
1!
b1011 k
b0 l
b1000000000000000 l
b100000000000000000000000000 l
b1010100101110001000010011100 j
#1340
0!
#1345
1!
b1100 k
b101011111101101 l
b1101011111101101 l
b1101011111101101000000000000 l
b11000000101011110000010011100 j
#1350
0!
#1355
1!
b1101 k
b101011111101101 l
b1101011111101101 l
b11010111111011010000000000000 l
b110011000100111000000010011100 j
#1360
0!
#1365
1!
b1110 k
b101011111101101 l
b1101011111101101 l
b110101111110110100000000000000 l
b1101001000011101100000010011100 j
#1370
0!
#1375
1!
b1111 k
b101011111101101 l
b1101011111101101 l
b11111111111111110010100000010010 l
b10010100000010010000000000000000 l
b11111101000101111100000010011100 j
b11111101000110001100000010011100 j
#1380
0!
#1385
1!
b10000 k
b11111101000110001100000010011100 h
1i
1a
1`
1_
1\
1U
1T
1P
1O
1K
1I
1H
1G
1F
1E
1D
1g
1d
0o
1o
b0 q
b0 l
b1000000000000000 l
b10000000000000000000000000000000 l
b1111101000110001100000010011100 j
#1390
0!
#1395
1"
1!
b0 h
0i
b0 k
b0 p
0a
0`
0_
0\
0U
0T
0P
0O
0K
0I
0H
0G
0F
0E
0D
0g
0d
0o
b0 l
b1000000000000000 l
b1111101000110010100000010011100 j
0f
b0 l
b0 j
#1400
0!
#1405
0"
1!
#1410
0!
#1415
1B
0@
1=
0;
0:
07
05
04
01
1/
0*
0)
1(
0'
1&
1$
1#
1!
1n
b1 q
1e
#1420
0!
#1425
0#
1!
0n
b0 q
0e
b1 p
1o
b1 q
1f
b1000000000000000 l
b1000000000000000 j
#1430
0!
#1435
1!
b1 k
b1110100111111001 l
b110100111111001 l
b1101001111110010 l
b10101001111110010 j
#1440
0!
#1445
1!
b10 k
b1110100111111001 l
b110100111111001 l
b11010011111100100 l
b101111101111010110 j
#1450
0!
#1455
1!
b11 k
b0 l
b1000000000000000 l
b1000000000000000000 l
b1101111101111010110 j
#1460
0!
#1465
1!
b100 k
b0 l
b1000000000000000 l
b10000000000000000000 l
b11101111101111010110 j
#1470
0!
#1475
1!
b101 k
b0 l
b1000000000000000 l
b100000000000000000000 l
b111101111101111010110 j
#1480
0!
#1485
1!
b110 k
b1110100111111001 l
b110100111111001 l
b110100111111001000000 l
b1110010111101000010110 j
#1490
0!
#1495
1!
b111 k
b1110100111111001 l
b110100111111001 l
b1101001111110010000000 l
b11011100111011010010110 j
#1500
0!
#1505
1!
b1000 k
b0 l
b1000000000000000 l
b100000000000000000000000 l
b111011100111011010010110 j
#1510
0!
#1515
1!
b1001 k
b0 l
b1000000000000000 l
b1000000000000000000000000 l
b1111011100111011010010110 j
#1520
0!
#1525
1!
b1010 k
b1110100111111001 l
b110100111111001 l
b1101001111110010000000000 l
b11100101100101101010010110 j
#1530
0!
#1535
1!
b1011 k
b0 l
b1000000000000000 l
b100000000000000000000000000 l
b111100101100101101010010110 j
#1540
0!
#1545
1!
b1100 k
b0 l
b1000000000000000 l
b1000000000000000000000000000 l
b1111100101100101101010010110 j
#1550
0!
#1555
1!
b1101 k
b1110100111111001 l
b110100111111001 l
b1101001111110010000000000000 l
b11100110101010111101010010110 j
#1560
0!
#1565
1!
b1110 k
b0 l
b1000000000000000 l
b100000000000000000000000000000 l
b111100110101010111101010010110 j
#1570
0!
#1575
1!
b1111 k
b0 l
b1000000000000000 l
b11111111111111110111111111111111 l
b10111111111111111000000000000000 l
b11111100110101001111101010010110 j
b11111100110101011111101010010110 j
#1580
0!
#1585
1!
b10000 k
b11111100110101011111101010010110 h
1i
1b
1a
1_
1\
1Z
1X
1W
1V
1U
1T
1S
1Q
1O
1M
1L
1I
1H
1G
1F
1E
1D
1g
1d
0o
1o
b0 q
b0 l
b1000000000000000 l
b10000000000000000000000000000000 l
b1111100110101011111101010010110 j
#1590
0!
#1595
1"
1!
b0 h
0i
b0 k
b0 p
0b
0a
0_
0\
0Z
0X
0W
0V
0U
0T
0S
0Q
0O
0M
0L
0I
0H
0G
0F
0E
0D
0g
0d
0o
b0 l
b1000000000000000 l
b1111100110101100111101010010110 j
0f
b0 l
b0 j
#1600
0!
#1605
0"
1!
#1610
0!
#1615
0A
1@
1>
0=
1:
09
17
06
15
14
11
00
0/
0.
0+
1)
0(
0&
0%
1#
1!
1n
b1 q
1e
#1620
0!
#1625
0#
1!
0n
b0 q
0e
b1 p
1o
b1 q
1f
b1000000000000000 l
b1000000000000000 j
#1630
0!
#1635
1!
b1 k
b1000010011000101 l
b10011000101 l
b100110001010 l
b1000100110001010 j
#1640
0!
#1645
1!
b10 k
b0 l
b1000000000000000 l
b100000000000000000 l
b101000100110001010 j
#1650
0!
#1655
1!
b11 k
b1000010011000101 l
b10011000101 l
b10011000101000 l
b101010111110110010 j
#1660
0!
#1665
1!
b100 k
b0 l
b1000000000000000 l
b10000000000000000000 l
b10101010111110110010 j
#1670
0!
#1675
1!
b101 k
b1000010011000101 l
b10011000101 l
b1001100010100000 l
b10110100100001010010 j
#1680
0!
#1685
1!
b110 k
b0 l
b1000000000000000 l
b1000000000000000000000 l
b1010110100100001010010 j
#1690
0!
#1695
1!
b111 k
b1000010011000101 l
b10011000101 l
b100110001010000000 l
b1011011010101011010010 j
#1700
0!
#1705
1!
b1000 k
b0 l
b1000000000000000 l
b100000000000000000000000 l
b101011011010101011010010 j
#1710
0!
#1715
1!
b1001 k
b1000010011000101 l
b10011000101 l
b10011000101000000000 l
b101101110011010011010010 j
#1720
0!
#1725
1!
b1010 k
b0 l
b1000000000000000 l
b10000000000000000000000000 l
b10101101110011010011010010 j
#1730
0!
#1735
1!
b1011 k
b0 l
b1000000000000000 l
b100000000000000000000000000 l
b110101101110011010011010010 j
#1740
0!
#1745
1!
b1100 k
b1000010011000101 l
b10011000101 l
b10011000101000000000000 l
b111000000111000010011010010 j
#1750
0!
#1755
1!
b1101 k
b0 l
b1000000000000000 l
b10000000000000000000000000000 l
b10111000000111000010011010010 j
#1760
0!
#1765
1!
b1110 k
b1000010011000101 l
b10011000101 l
b1001100010100000000000000 l
b11000001101001100010011010010 j
#1770
0!
#1775
1!
b1111 k
b1000010011000101 l
b10011000101 l
b11111111111111111111101100111010 l
b11111101100111010000000000000000 l
b10101110100011100010011010010 j
b10101110100101100010011010010 j
#1780
0!
#1785
1!
b10000 k
b10101110100101100010011010010 h
1i
1b
1_
1]
1\
1Y
1U
1T
1R
1O
1M
1L
1K
1I
1G
1g
1d
0o
1o
b0 q
b0 l
b1000000000000000 l
b10000000000000000000000000000000 l
b10010101110100101100010011010010 j
#1790
0!
#1795
1"
1!
b0 h
0i
b0 k
b0 p
0b
0_
0]
0\
0Y
0U
0T
0R
0O
0M
0L
0K
0I
0G
0g
0d
0o
b0 l
b1000000000000000 l
b10010101110100110100010011010010 j
0f
b0 l
b0 j
#1800
0!
#1805
0"
1!
#1810
0!
#1815
1C
1A
0@
1?
1=
0<
16
04
1.
1+
1*
1'
1&
1%
1#
1!
1n
b1 q
1e
#1820
0!
#1825
0#
1!
0n
b0 q
0e
b1 p
1o
b1 q
1f
b1111011111100101 l
b111011111100101 l
b111011111100101 j
#1830
0!
#1835
1!
b1 k
b1111011111100101 l
b111011111100101 l
b1110111111001010 l
b10110011110101111 j
#1840
0!
#1845
1!
b10 k
b1111011111100101 l
b111011111100101 l
b11101111110010100 l
b110100011101000011 j
#1850
0!
#1855
1!
b11 k
b0 l
b1000000000000000 l
b1000000000000000000 l
b1110100011101000011 j
#1860
0!
